{
	"tokens": [
		{
			"image": "MOVE",
			"startOffset": 11,
			"endOffset": 14,
			"startLine": 1,
			"endLine": 1,
			"startColumn": 12,
			"endColumn": 15,
			"tokenTypeIdx": 20,
			"tokenType": {
				"name": "MOVE",
				"PATTERN": {},
				"tokenTypeIdx": 20,
				"CATEGORIES": [],
				"categoryMatches": [],
				"categoryMatchesMap": {},
				"isParent": false,
				"LONGER_ALT": {
					"name": "Identifier",
					"PATTERN": {},
					"tokenTypeIdx": 3,
					"CATEGORIES": [],
					"categoryMatches": [],
					"categoryMatchesMap": {},
					"isParent": false
				}
			}
		},
		{
			"image": "\"HEY\"",
			"startOffset": 16,
			"endOffset": 20,
			"startLine": 1,
			"endLine": 1,
			"startColumn": 17,
			"endColumn": 21,
			"tokenTypeIdx": 4,
			"tokenType": {
				"name": "StringLiteral",
				"PATTERN": {},
				"tokenTypeIdx": 4,
				"CATEGORIES": [],
				"categoryMatches": [],
				"categoryMatchesMap": {},
				"isParent": false
			}
		},
		{
			"image": "TO",
			"startOffset": 22,
			"endOffset": 23,
			"startLine": 1,
			"endLine": 1,
			"startColumn": 23,
			"endColumn": 24,
			"tokenTypeIdx": 21,
			"tokenType": {
				"name": "TO",
				"PATTERN": {},
				"tokenTypeIdx": 21,
				"CATEGORIES": [],
				"categoryMatches": [],
				"categoryMatchesMap": {},
				"isParent": false,
				"LONGER_ALT": {
					"name": "Identifier",
					"PATTERN": {},
					"tokenTypeIdx": 3,
					"CATEGORIES": [],
					"categoryMatches": [],
					"categoryMatchesMap": {},
					"isParent": false
				}
			}
		},
		{
			"image": "TEST-VAR",
			"startOffset": 25,
			"endOffset": 32,
			"startLine": 1,
			"endLine": 1,
			"startColumn": 26,
			"endColumn": 33,
			"tokenTypeIdx": 3,
			"tokenType": {
				"name": "Identifier",
				"PATTERN": {},
				"tokenTypeIdx": 3,
				"CATEGORIES": [],
				"categoryMatches": [],
				"categoryMatchesMap": {},
				"isParent": false
			}
		}
	],
	"groups": {},
	"errors": []
}